…
Once the genes with the highest average expression in the cells of each
cluster (with respect to the cells of all the other clusters) are
identified, **we print for each cluster the first five more significant
markers sorted by avg_log2FC** - that is more significant than the
adjusted p-value because we are using a non parametric test that, when
run on very big clusters, may have the side effect of returning very low
adjusted p-values for small difference in numbers. So the advise is to
sort the putative marker genes by avg_log2FC

``` r
pbmc16_02.markers %>%group_by(cluster) %>%slice_max(n = 5, order_by = avg_log2FC)
```

    ## # A tibble: 60 × 7
    ## # Groups:   cluster [12]
    ##        p_val avg_log2FC pct.1 pct.2 p_val_adj cluster gene   
    ##        <dbl>      <dbl> <dbl> <dbl>     <dbl> <fct>   <chr>  
    ##  1 0               4.28 0.968 0.422 0         0       Fabp4  
    ##  2 5.73e-222       4.18 0.804 0.344 1.17e-217 0       Aqp1   
    ##  3 0               3.79 0.791 0.095 0         0       Gpihbp1
    ##  4 3.91e-238       3.65 0.757 0.198 7.96e-234 0       Id1    
    ##  5 0               3.26 0.832 0.113 0         0       Flt1   
    ##  6 1.77e-285       4.25 1     0.705 3.61e-281 1       Gsn    
    ##  7 0               4.00 0.981 0.101 0         1       Clec3b 
    ##  8 2.17e-303       3.91 0.827 0.097 4.42e-299 1       Smoc2  
    ##  9 0               3.76 0.99  0.22  0         1       Col3a1 
    ## 10 1.43e-157       3.72 0.53  0.074 2.92e-153 1       Ptx3   
    ## # … with 50 more rows
…
Cells in cluster 5 appear not to be proliferating as much as those in
the other clusters.

We can now **retrieve the marker genes for each cluster.** These are
selected as the 5 genes having the highest average Log_2 Fold Change of
expression in each cluster

``` r
pbmc25_001.markers <- FindAllMarkers(pbmc25_001, only.pos = TRUE, min.pct = 0.25, logfc.threshold = 0.25)
pbmc25_001.markers %>%group_by(cluster) %>%slice_max(n = 5, order_by = avg_log2FC)
```

    ## # A tibble: 35 × 7
    ## # Groups:   cluster [7]
    ##        p_val avg_log2FC pct.1 pct.2 p_val_adj cluster gene   
    ##        <dbl>      <dbl> <dbl> <dbl>     <dbl> <fct>   <chr>  
    ##  1 0               5.42 0.952 0.403 0         0       Fabp4  
    ##  2 4.27e-235       4.94 0.795 0.325 8.69e-231 0       Aqp1   
    ##  3 2.94e-293       3.80 0.748 0.084 5.99e-289 0       Gpihbp1
    ##  4 7.70e-220       3.63 0.721 0.191 1.57e-215 0       Id1    
    ##  5 0               3.62 0.821 0.081 0         0       Flt1   
    ##  6 0               5.45 0.997 0.395 0         1       Dcn    
    ##  7 0               5.09 1     0.669 0         1       Gsn    
    ##  8 0               4.65 0.979 0.121 0         1       Col1a1 
    ##  9 0               4.46 0.984 0.159 0         1       Col1a2 
    ## 10 3.11e- 61       4.42 0.474 0.182 6.33e- 57 1       Fmod   
    ## # … with 25 more rows
…
The proportion of cells in different CC phases is more or less the same
in all the clusters.

## Finding “marker” genes and assigning cell types to clusters

``` r
pbmc10_05.markers <- FindAllMarkers(pbmc10_05, only.pos = TRUE, min.pct = 0.25, logfc.threshold = 0.25)
```

``` r
pbmc10_05.markers %>%group_by(cluster) %>%slice_max(n = 5, order_by = avg_log2FC)
```

    ## # A tibble: 60 × 7
    ## # Groups:   cluster [12]
    ##        p_val avg_log2FC pct.1 pct.2 p_val_adj cluster gene        
    ##        <dbl>      <dbl> <dbl> <dbl>     <dbl> <fct>   <chr>       
    ##  1 6.82e-208       2.79 0.79  0.155 1.39e-203 0       Tcf15       
    ##  2 3.68e-205       2.73 0.832 0.195 7.51e-201 0       Egfl7       
    ##  3 6.46e-159       2.68 0.889 0.459 1.32e-154 0       Sgk1        
    ##  4 9.29e-173       2.66 0.828 0.246 1.89e-168 0       RP23-310J6.1
    ##  5 3.41e-175       2.65 0.987 0.778 6.94e-171 0       Klf2        
    ##  6 8.15e-292       4.13 0.949 0.144 1.66e-287 1       Smoc2       
    ##  7 1.11e-122       3.66 0.621 0.134 2.26e-118 1       Cxcl14      
    ##  8 3.80e-194       3.31 1     0.762 7.73e-190 1       Gsn         
    ##  9 2.39e-239       3.15 0.916 0.168 4.87e-235 1       Lum         
    ## 10 1.20e-196       2.72 0.858 0.163 2.44e-192 1       Myoc        
    ## # … with 50 more rows
…
